Data Analysis
…
# Make data that keeps those columns separate
df_analysis <- tmp

Summary Statistics

Average egg diameter

egg_diameter_avgs<-df_summaries %>%
  group_by(treatment_ind_number) %>%
  summarize(avg = mean(egg_diameter_mm))

egg_diameter_avgs

# A tibble: 40 × 2
   treatment_ind_number   avg
   <chr>                <dbl>
 1 EtOH80_1              2.09
 2 EtOH80_10             2.06
 3 EtOH80_2              1.94
 4 EtOH80_3              2.07
 5 EtOH80_4              1.80
 6 EtOH80_5              2.02
 7 EtOH80_6              2.04
 8 EtOH80_7              2.08
 9 EtOH80_8              1.94
10 EtOH80_9              2.02
# ℹ 30 more rows

Eggs per individual across treatments

ind_egg_counts<-df_summaries %>%
  group_by(treatment_ind_number) %>%
  summarize(egg_count = n())

ind_egg_counts

# A tibble: 40 × 2
   treatment_ind_number egg_count
   <chr>                    <int>
 1 EtOH80_1                    43
 2 EtOH80_10                   39
 3 EtOH80_2                    99
 4 EtOH80_3                    58
 5 EtOH80_4                    26
 6 EtOH80_5                   127
 7 EtOH80_6                    55
 8 EtOH80_7                    69
 9 EtOH80_8                    88
10 EtOH80_9                    95
# ℹ 30 more rows
…
